State dimension 3 output dimension 1 input dimension 1

JMLS 
 
Discrete modes:['q1', 'q2']

Discrete mode: q1
 A matrix:
 [[ 0.   0.5  0.5]
 [ 1.   1.   1. ]
 [ 1.   0.   0. ]]
 B matrix:
 [[ 0.]
 [ 2.]
 [ 0.]]
 
C matrix:
 [[ 1.   0.5  0.5]]
Discrete mode: q2
 A matrix:
 [[ 0.   0.5  0.5]
 [ 0.   0.5  0.5]
 [ 0.  -0.5 -0.5]]
 B matrix:
 [[ 0.]
 [ 1.]
 [-1.]]
 
C matrix:
 [[ 1.   0.5  0.5]]
D matrix:
 [[ 1.]]
P matrix:
[[ 0.3  0.2]
 [ 0.7  0.8]]
State dimension 2 output dimension 1 input dimension 1

JMLS 2 
 
Discrete modes:['q1', 'q2']

Discrete mode: q1
 A matrix:
 [[ 0.  1.]
 [ 1.  1.]]
 B matrix:
 [[ 0.]
 [ 1.]]
 
C matrix:
 [[ 1.  1.]]
Discrete mode: q2
 A matrix:
 [[ 0.  1.]
 [ 0.  0.]]
 B matrix:
 [[ 0.]
 [ 0.]]
 
C matrix:
 [[ 1.  1.]]
D matrix:
 [[ 1.]]
P matrix:
[[ 0.3  0.2]
 [ 0.7  0.8]]
State dimension 6 output dimension 1 input dimension 1

Bilinear stoch from JMLS:
Discrete modes:[('q1', 'q1'), ('q1', 'q2'), ('q2', 'q1'), ('q2', 'q2')]

Discrete mode: ('q1', 'q1')
 A matrix:
 [[ 0.   0.5  0.5  0.   0.   0. ]
 [ 1.   1.   1.   0.   0.   0. ]
 [ 1.   0.   0.   0.   0.   0. ]
 [ 0.   0.   0.   0.   0.   0. ]
 [ 0.   0.   0.   0.   0.   0. ]
 [ 0.   0.   0.   0.   0.   0. ]]
 B matrix:
 [[ 0.]
 [ 2.]
 [ 0.]
 [ 0.]
 [ 0.]
 [ 0.]]
 psigmas: 0.3
 Noise variances: [[ 0.0666666667]]
 alphas: 1
 Noise variances: [[ 0.0666666667]]
Discrete mode: ('q1', 'q2')
 A matrix:
 [[ 0.   0.   0.   0.   0.5  0.5]
 [ 0.   0.   0.   0.   0.5  0.5]
 [ 0.   0.   0.   0.  -0.5 -0.5]
 [ 0.   0.   0.   0.   0.   0. ]
 [ 0.   0.   0.   0.   0.   0. ]
 [ 0.   0.   0.   0.   0.   0. ]]
 B matrix:
 [[ 0.]
 [ 1.]
 [-1.]
 [ 0.]
 [ 0.]
 [ 0.]]
 psigmas: 0.2
 Noise variances: [[ 0.1555555556]]
 alphas: 1
 Noise variances: [[ 0.1555555556]]
Discrete mode: ('q2', 'q1')
 A matrix:
 [[ 0.   0.   0.   0.   0.   0. ]
 [ 0.   0.   0.   0.   0.   0. ]
 [ 0.   0.   0.   0.   0.   0. ]
 [ 0.   0.5  0.5  0.   0.   0. ]
 [ 1.   1.   1.   0.   0.   0. ]
 [ 1.   0.   0.   0.   0.   0. ]]
 B matrix:
 [[ 0.]
 [ 0.]
 [ 0.]
 [ 0.]
 [ 2.]
 [ 0.]]
 psigmas: 0.7
 Noise variances: [[ 0.1555555556]]
 alphas: 1
 Noise variances: [[ 0.1555555556]]
Discrete mode: ('q2', 'q2')
 A matrix:
 [[ 0.   0.   0.   0.   0.   0. ]
 [ 0.   0.   0.   0.   0.   0. ]
 [ 0.   0.   0.   0.   0.   0. ]
 [ 0.   0.   0.   0.   0.5  0.5]
 [ 0.   0.   0.   0.   0.5  0.5]
 [ 0.   0.   0.   0.  -0.5 -0.5]]
 B matrix:
 [[ 0.]
 [ 0.]
 [ 0.]
 [ 0.]
 [ 1.]
 [-1.]]
 psigmas: 0.8
 Noise variances: [[ 0.6222222222]]
 alphas: 1
 Noise variances: [[ 0.6222222222]]
C matrix:
 [[ 1.   0.5  0.5  1.   0.5  0.5]]
 D matrix:
 [[ 1.]]
Language

 (('q1', 'q1'), ('q1', 'q1')) 
 (('q1', 'q1'), ('q2', 'q1')) 
 (('q1', 'q2'), ('q1', 'q1')) 
 (('q1', 'q2'), ('q2', 'q1')) 
 (('q2', 'q1'), ('q1', 'q2')) 
 (('q2', 'q1'), ('q2', 'q2')) 
 (('q2', 'q2'), ('q1', 'q2')) 
 (('q2', 'q2'), ('q2', 'q2')) 
Eiegenvalues [  0.00000000e+00 +0.00000000e+00j   0.00000000e+00 +0.00000000e+00j
   0.00000000e+00 +0.00000000e+00j   0.00000000e+00 +0.00000000e+00j
   0.00000000e+00 +0.00000000e+00j   8.75488353e-01 +0.00000000e+00j
   1.74964336e-01 +0.00000000e+00j  -4.50452689e-01 +0.00000000e+00j
  -3.00000000e-01 +0.00000000e+00j   1.20705267e-09 +0.00000000e+00j
  -1.20705370e-09 +0.00000000e+00j   1.33747018e-15 +0.00000000e+00j
  -1.55089170e-16 +0.00000000e+00j  -1.66789996e-17 +3.43208069e-17j
  -1.66789996e-17 -3.43208069e-17j  -2.06029494e-17 +0.00000000e+00j
   2.68161412e-17 +0.00000000e+00j   6.89246449e-17 +0.00000000e+00j
   0.00000000e+00 +0.00000000e+00j   0.00000000e+00 +0.00000000e+00j
   0.00000000e+00 +0.00000000e+00j   0.00000000e+00 +0.00000000e+00j
   0.00000000e+00 +0.00000000e+00j   0.00000000e+00 +0.00000000e+00j
   0.00000000e+00 +0.00000000e+00j   0.00000000e+00 +0.00000000e+00j
   0.00000000e+00 +0.00000000e+00j   0.00000000e+00 +0.00000000e+00j
   0.00000000e+00 +0.00000000e+00j   0.00000000e+00 +0.00000000e+00j
   0.00000000e+00 +0.00000000e+00j   0.00000000e+00 +0.00000000e+00j
   0.00000000e+00 +0.00000000e+00j   0.00000000e+00 +0.00000000e+00j
   0.00000000e+00 +0.00000000e+00j   0.00000000e+00 +0.00000000e+00j]

Is stable True 

P matrix at ('q1', 'q1')[[ 0.07203579  0.11230425 -0.03176734  0.          0.          0.        ]
 [ 0.11230425  0.35319911 -0.04474273  0.          0.          0.        ]
 [-0.03176734 -0.04474273  0.11212528  0.          0.          0.        ]
 [ 0.          0.          0.          0.          0.          0.        ]
 [ 0.          0.          0.          0.          0.          0.        ]
 [ 0.          0.          0.          0.          0.          0.        ]]

P matrix at ('q1', 'q2')[[ 0.          0.          0.          0.          0.          0.        ]
 [ 0.          0.          0.          0.          0.          0.        ]
 [ 0.          0.          0.          0.          0.          0.        ]
 [ 0.          0.          0.          0.16077554  0.22341536 -0.09813572]
 [ 0.          0.          0.          0.22341536  0.64999254 -0.17017151]
 [ 0.          0.          0.         -0.09813572 -0.17017151  0.27498881]]

P matrix at ('q2', 'q1')[[ 0.16808352  0.26204325 -0.07412379  0.          0.          0.        ]
 [ 0.26204325  0.82413125 -0.1043997   0.          0.          0.        ]
 [-0.07412379 -0.1043997   0.26162565  0.          0.          0.        ]
 [ 0.          0.          0.          0.          0.          0.        ]
 [ 0.          0.          0.          0.          0.          0.        ]
 [ 0.          0.          0.          0.          0.          0.        ]]

P matrix at ('q2', 'q2')[[ 0.          0.          0.          0.          0.          0.        ]
 [ 0.          0.          0.          0.          0.          0.        ]
 [ 0.          0.          0.          0.          0.          0.        ]
 [ 0.          0.          0.          0.64310216  0.89366145 -0.39254288]
 [ 0.          0.          0.          0.89366145  2.59997017 -0.68068606]
 [ 0.          0.          0.         -0.39254288 -0.68068606  1.09995526]]

Is observable False 

Is controllable True 

Representation of bilsys

Alphabet: [('q1', 'q1'), ('q1', 'q2'), ('q2', 'q1'), ('q2', 'q2')]

Transitions: 

Input: ('q2', 'q1')

 matrix: [[ 0.    0.    0.    0.    0.    0.  ]
 [ 0.    0.    0.    0.    0.    0.  ]
 [ 0.    0.    0.    0.    0.    0.  ]
 [ 0.    0.42  0.42  0.    0.    0.  ]
 [ 0.84  0.84  0.84  0.    0.    0.  ]
 [ 0.84  0.    0.    0.    0.    0.  ]]

Input: ('q1', 'q2')

 matrix: [[ 0.    0.    0.    0.    0.22  0.22]
 [ 0.    0.    0.    0.    0.22  0.22]
 [ 0.    0.    0.    0.   -0.22 -0.22]
 [ 0.    0.    0.    0.    0.    0.  ]
 [ 0.    0.    0.    0.    0.    0.  ]
 [ 0.    0.    0.    0.    0.    0.  ]]

Input: ('q1', 'q1')

 matrix: [[ 0.    0.27  0.27  0.    0.    0.  ]
 [ 0.55  0.55  0.55  0.    0.    0.  ]
 [ 0.55  0.    0.    0.    0.    0.  ]
 [ 0.    0.    0.    0.    0.    0.  ]
 [ 0.    0.    0.    0.    0.    0.  ]
 [ 0.    0.    0.    0.    0.    0.  ]]

Input: ('q2', 'q2')

 matrix: [[ 0.    0.    0.    0.    0.    0.  ]
 [ 0.    0.    0.    0.    0.    0.  ]
 [ 0.    0.    0.    0.    0.    0.  ]
 [ 0.    0.    0.    0.    0.45  0.45]
 [ 0.    0.    0.    0.    0.45  0.45]
 [ 0.    0.    0.    0.   -0.45 -0.45]]

Output:[[ 1.   0.5  0.5  1.   0.5  0.5]]

Zeta: index: (('q1', 'q1'), 0) elem: [[ 0.25]
 [ 0.94]
 [ 0.21]
 [ 0.  ]
 [ 0.  ]
 [ 0.  ]]

Zeta: index: (('q1', 'q2'), 0) elem: [[ 0.47]
 [ 0.81]
 [-0.81]
 [ 0.  ]
 [ 0.  ]
 [ 0.  ]]

Zeta: index: (('q2', 'q1'), 0) elem: [[ 0.  ]
 [ 0.  ]
 [ 0.  ]
 [ 0.37]
 [ 1.43]
 [ 0.31]]

Zeta: index: (('q2', 'q2'), 0) elem: [[ 0.  ]
 [ 0.  ]
 [ 0.  ]
 [ 0.93]
 [ 1.63]
 [-1.63]]

State dimension 4 output dimension 1 input dimension 1

Bilinear stoch from JMLS0:
Discrete modes:[('q1', 'q1'), ('q1', 'q2'), ('q2', 'q1'), ('q2', 'q2')]

Discrete mode: ('q1', 'q1')
 A matrix:
 [[ 0.  1.  0.  0.]
 [ 1.  1.  0.  0.]
 [ 0.  0.  0.  0.]
 [ 0.  0.  0.  0.]]
 B matrix:
 [[ 0.]
 [ 1.]
 [ 0.]
 [ 0.]]
 psigmas: 0.3
 Noise variances: [[ 0.0666666667]]
 alphas: 1
 Noise variances: [[ 0.0666666667]]
Discrete mode: ('q1', 'q2')
 A matrix:
 [[ 0.  0.  0.  1.]
 [ 0.  0.  0.  0.]
 [ 0.  0.  0.  0.]
 [ 0.  0.  0.  0.]]
 B matrix:
 [[ 0.]
 [ 0.]
 [ 0.]
 [ 0.]]
 psigmas: 0.2
 Noise variances: [[ 0.1555555556]]
 alphas: 1
 Noise variances: [[ 0.1555555556]]
Discrete mode: ('q2', 'q1')
 A matrix:
 [[ 0.  0.  0.  0.]
 [ 0.  0.  0.  0.]
 [ 0.  1.  0.  0.]
 [ 1.  1.  0.  0.]]
 B matrix:
 [[ 0.]
 [ 0.]
 [ 0.]
 [ 1.]]
 psigmas: 0.7
 Noise variances: [[ 0.1555555556]]
 alphas: 1
 Noise variances: [[ 0.1555555556]]
Discrete mode: ('q2', 'q2')
 A matrix:
 [[ 0.  0.  0.  0.]
 [ 0.  0.  0.  0.]
 [ 0.  0.  0.  1.]
 [ 0.  0.  0.  0.]]
 B matrix:
 [[ 0.]
 [ 0.]
 [ 0.]
 [ 0.]]
 psigmas: 0.8
 Noise variances: [[ 0.6222222222]]
 alphas: 1
 Noise variances: [[ 0.6222222222]]
C matrix:
 [[ 1.  1.  1.  1.]]
 D matrix:
 [[ 1.]]
Language

 (('q1', 'q1'), ('q1', 'q1')) 
 (('q1', 'q1'), ('q2', 'q1')) 
 (('q1', 'q2'), ('q1', 'q1')) 
 (('q1', 'q2'), ('q2', 'q1')) 
 (('q2', 'q1'), ('q1', 'q2')) 
 (('q2', 'q1'), ('q2', 'q2')) 
 (('q2', 'q2'), ('q1', 'q2')) 
 (('q2', 'q2'), ('q2', 'q2')) 
Eiegenvalues [  0.00000000e+00   0.00000000e+00   0.00000000e+00   8.75488353e-01
  -4.50452689e-01   1.74964336e-01   1.97887803e-17  -3.00000000e-01
   0.00000000e+00   0.00000000e+00   0.00000000e+00   0.00000000e+00
   0.00000000e+00   0.00000000e+00   0.00000000e+00   0.00000000e+00]

Is stable True 

P matrix at ('q1', 'q1')[[ 0.07203579  0.04026846  0.          0.        ]
 [ 0.04026846  0.09395973  0.          0.        ]
 [ 0.          0.          0.          0.        ]
 [ 0.          0.          0.          0.        ]]

P matrix at ('q1', 'q2')[[ 0.          0.          0.          0.        ]
 [ 0.          0.          0.          0.        ]
 [ 0.          0.          0.16077554  0.06263982]
 [ 0.          0.          0.06263982  0.14615958]]

P matrix at ('q2', 'q1')[[ 0.16808352  0.09395973  0.          0.        ]
 [ 0.09395973  0.21923937  0.          0.        ]
 [ 0.          0.          0.          0.        ]
 [ 0.          0.          0.          0.        ]]

P matrix at ('q2', 'q2')[[ 0.          0.          0.          0.        ]
 [ 0.          0.          0.          0.        ]
 [ 0.          0.          0.64310216  0.25055928]
 [ 0.          0.          0.25055928  0.58463833]]

Is observable True 

Is controllable True 

State dimension 4 output dimension 1 input dimension 1

Minimal stochastic bilinear system calculated by the minimization algorithm

Discrete modes:[('q1', 'q1'), ('q1', 'q2'), ('q2', 'q1'), ('q2', 'q2')]

Discrete mode: ('q1', 'q1')
 A matrix:
 [[ 1.5382605979 -0.            0.1914373716  0.          ]
 [ 0.           -0.            0.            0.          ]
 [ 0.8985441528  0.           -0.5382605979  0.          ]
 [ 0.           -0.            0.            0.          ]]
 B matrix:
 [[ 0.9783400797]
 [ 0.          ]
 [ 1.0212006113]
 [ 0.          ]]
 psigmas: 0.3
 Noise variances: [[ 0.0666666667]]
 alphas: 1
 Noise variances: [[ 0.0666666667]]
Discrete mode: ('q1', 'q2')
 A matrix:
 [[ 0.           -0.5106003056 -0.            0.          ]
 [ 0.           -0.           -0.            0.          ]
 [-0.            0.4891700399  0.           -0.          ]
 [ 0.           -0.           -0.            0.          ]]
 B matrix:
 [[-0.]
 [ 0.]
 [ 0.]
 [ 0.]]
 psigmas: 0.2
 Noise variances: [[ 0.1555555555]]
 alphas: 1
 Noise variances: [[ 0.1555555555]]
Discrete mode: ('q2', 'q1')
 A matrix:
 [[-0.            0.           -0.           -0.          ]
 [-1.7129915159  0.            0.2562422026 -0.          ]
 [-0.           -0.            0.           -0.          ]
 [ 0.4891700399 -0.            0.5106003056  0.          ]]
 B matrix:
 [[-0.          ]
 [-1.4142135624]
 [-0.          ]
 [-0.0000000001]]
 psigmas: 0.7
 Noise variances: [[ 0.1555555555]]
 alphas: 1
 Noise variances: [[ 0.1555555555]]
Discrete mode: ('q2', 'q2')
 A matrix:
 [[-0.            0.            0.            0.          ]
 [-0.           -0.           -0.           -0.          ]
 [ 0.           -0.           -0.            0.          ]
 [ 0.           -0.7071067812 -0.            0.          ]]
 B matrix:
 [[-0.]
 [-0.]
 [ 0.]
 [-0.]]
 psigmas: 0.8
 Noise variances: [[ 0.6222222221]]
 alphas: 1
 Noise variances: [[ 0.6222222221]]
C matrix:
 [[ 1.211267917  -0.7071067812 -0.1811905991  1.          ]]
 D matrix:
 [[ 1.]]
Language

 (('q1', 'q1'), ('q1', 'q1')) 
 (('q1', 'q1'), ('q2', 'q1')) 
 (('q1', 'q2'), ('q1', 'q1')) 
 (('q1', 'q2'), ('q2', 'q1')) 
 (('q2', 'q1'), ('q1', 'q2')) 
 (('q2', 'q1'), ('q2', 'q2')) 
 (('q2', 'q2'), ('q1', 'q2')) 
 (('q2', 'q2'), ('q2', 'q2')) 
Index set: [(('q1', 'q1'), 0), (('q1', 'q2'), 0), (('q2', 'q1'), 0), (('q2', 'q2'), 0)]

Creating big Hankel

Re-Creating big Hankel

Extracting submatrix from big Hankel of size: 4

Hankel matrix size: 2

Hankel matrix dimension2: (21, 340) 

P matrix at ('q1', 'q1')[[  1.84390671e-01   4.75186211e-17   6.03288836e-02   1.24637135e-16]
 [  4.75186211e-17   4.58356712e-32  -9.72388780e-18   8.18974670e-32]
 [  6.03288836e-02  -9.72388780e-18   7.55645866e-02   1.59135249e-17]
 [  1.24637135e-16   8.18974670e-32   1.59135249e-17   1.62316252e-31]]

P matrix at ('q1', 'q2')[[  2.06478292e-33   6.98934980e-18  -1.69354058e-33  -1.55201557e-17]
 [  6.98934980e-18   2.92319165e-01   3.84794418e-17  -8.85860844e-02]
 [ -1.69354058e-33   3.84794418e-17   9.17284755e-33   2.33005109e-18]
 [ -1.55201557e-17  -8.85860844e-02   2.33005109e-18   1.60775541e-01]]

P matrix at ('q2', 'q1')[[  4.30244898e-01   1.10876783e-16   1.40767395e-01   2.90819981e-16]
 [  1.10876783e-16   1.06949899e-31  -2.26890715e-17   1.91094090e-31]
 [  1.40767395e-01  -2.26890715e-17   1.76317369e-01   3.71315580e-17]
 [  2.90819981e-16   1.91094090e-31   3.71315580e-17   3.78737921e-31]]

P matrix at ('q2', 'q2')[[  8.25913168e-33   2.79573992e-17  -6.77416231e-33  -6.20806228e-17]
 [  2.79573992e-17   1.16927666e+00   1.53917767e-16  -3.54344338e-01]
 [ -6.77416231e-33   1.53917767e-16   3.66913902e-32   9.32020438e-18]
 [ -6.20806228e-17  -3.54344338e-01   9.32020438e-18   6.43102162e-01]]

Index set: [(('q1', 'q1'), 0), (('q1', 'q2'), 0), (('q2', 'q1'), 0), (('q2', 'q2'), 0)]

Creating big Hankel

Re-Creating big Hankel

Extracting submatrix from big Hankel of size: 4

Hankel matrix size: 2

Hankel matrix dimension2: (21, 340) 

Difference in Hankel matrices between original and minimized system:2.05338669363e-09

State dimension 4 output dimension 1 input dimension 1

Bilinear stochastic system from Hankel matrix
Discrete modes:[('q1', 'q1'), ('q1', 'q2'), ('q2', 'q1'), ('q2', 'q2')]

Discrete mode: ('q1', 'q1')
 A matrix:
 [[ 1.2994335996  0.7883200305  0.1666319526  0.0849615043]
 [ 0.5145724965  0.309548168   0.0559256869 -0.1048646157]
 [ 0.0563150431  0.0311347914 -0.0043906925 -0.1561959617]
 [ 0.0997543759  0.048937404  -0.031594266  -0.6045910751]]
 B matrix:
 [[-1.2826834384]
 [-0.5846787217]
 [-0.1441675242]
 [-0.4370481306]]
 psigmas: 0.3
 Noise variances: [[ 0.0666666668]]
 alphas: 1
 Noise variances: [[ 0.0666666668]]
Discrete mode: ('q1', 'q2')
 A matrix:
 [[ 0.2482025739 -0.6953973285  0.6482020994 -0.0119689372]
 [ 0.0598692259 -0.1677375827  0.1563535677 -0.002887041 ]
 [-0.0335888402  0.0941069601 -0.0877201085  0.0016197363]
 [-0.1504510182  0.4215235745 -0.3929156106  0.0072551173]]
 B matrix:
 [[-0.0000000002]
 [-0.          ]
 [ 0.          ]
 [ 0.0000000001]]
 psigmas: 0.2
 Noise variances: [[ 0.1555555558]]
 alphas: 1
 Noise variances: [[ 0.1555555558]]
Discrete mode: ('q2', 'q1')
 A matrix:
 [[ 0.3825922483  0.2325595478  0.0508034421  0.048999162 ]
 [-0.6649025217 -0.4017315011 -0.0789727801  0.0431349164]
 [ 0.1616111819  0.0863171145 -0.0242240505 -0.608283621 ]
 [ 0.0008611787  0.0013430729  0.0032558931  0.0433633033]]
 B matrix:
 [[-0.3643724968]
 [ 0.7043160704]
 [-0.502394145 ]
 [ 0.0231436154]]
 psigmas: 0.7
 Noise variances: [[ 0.1555555559]]
 alphas: 1
 Noise variances: [[ 0.1555555559]]
Discrete mode: ('q2', 'q2')
 A matrix:
 [[ 0.0797307297 -0.2233842121  0.2082235714 -0.0038448115]
 [-0.1029792092  0.2885202431 -0.2689389499  0.0049659102]
 [-0.140781862   0.394433181  -0.367663788   0.0067888469]
 [ 0.0121765833 -0.0341155347  0.0318001814 -0.0005871847]]
 B matrix:
 [[-0.0000000001]
 [ 0.0000000001]
 [ 0.0000000001]
 [-0.          ]]
 psigmas: 0.8
 Noise variances: [[ 0.6222222232]]
 alphas: 1
 Noise variances: [[ 0.6222222232]]
C matrix:
 [[-1.3054839436  1.0544188734  0.4340921645 -0.0104236502]]
 D matrix:
 [[ 1.]]
Language

 (('q1', 'q1'), ('q1', 'q1')) 
 (('q1', 'q1'), ('q2', 'q1')) 
 (('q1', 'q2'), ('q1', 'q1')) 
 (('q1', 'q2'), ('q2', 'q1')) 
 (('q2', 'q1'), ('q1', 'q2')) 
 (('q2', 'q1'), ('q2', 'q2')) 
 (('q2', 'q2'), ('q1', 'q2')) 
 (('q2', 'q2'), ('q2', 'q2')) 
P matrix at ('q1', 'q1')[[ 0.30734672  0.11735728  0.00829728  0.00439618]
 [ 0.11735728  0.04585372  0.004371    0.00627604]
 [ 0.00829728  0.004371    0.00161232  0.00542536]
 [ 0.00439618  0.00627604  0.00542536  0.02034699]]

P matrix at ('q1', 'q2')[[ 0.04631525 -0.0765272   0.00013166  0.00144055]
 [-0.0765272   0.12840254 -0.00980647 -0.00172085]
 [ 0.00013166 -0.00980647  0.04701301 -0.00322881]
 [ 0.00144055 -0.00172085 -0.00322881  0.00026712]]

P matrix at ('q2', 'q1')[[ 0.71714234  0.27383366  0.01936032  0.01025775]
 [ 0.27383366  0.106992    0.01019899  0.0146441 ]
 [ 0.01936032  0.01019899  0.00376208  0.01265918]
 [ 0.01025775  0.0146441   0.01265918  0.04747632]]

P matrix at ('q2', 'q2')[[ 0.18526102 -0.30610882  0.00052666  0.00576222]
 [-0.30610882  0.51361018 -0.03922586 -0.00688338]
 [ 0.00052666 -0.03922586  0.18805202 -0.01291524]
 [ 0.00576222 -0.00688338 -0.01291524  0.00106849]]

Relative difference in formal power series matrices between original and minimized systems:3.85041623011e-10

Relative difference in formal power series matrices between original system and the system from Hankel matrix:1.04044130528e-09

Relative difference in formal power series matrices between original system and the simple minimal system:3.47586172586e-10

t_obs_matrix [[ -7.96760955e-01   4.54586668e-02   6.03673392e-02  -8.47156231e-02]
 [ -9.00225072e-03  -5.46549803e-01  -1.00180560e-02   5.88170946e-02]
 [ -4.97376023e-02   6.60204900e-03  -5.27284199e-01   8.56973310e-02]
 [ -1.98265002e-17   2.66522212e-16  -5.84856398e-17  -5.64059330e-01]
 [  5.07420441e-01  -2.41539724e-01   5.26395267e-02   2.30528552e-01]
 [  3.18467446e-01   5.75035580e-01   6.10362149e-02  -4.50144251e-01]
 [  5.16094925e-02  -5.56891681e-01   5.79614485e-02  -6.27080369e-01]
 [ -3.25046653e-02   6.12650711e-03   8.41647746e-01   1.21876180e-01]]

U1 [[ -7.96760955e-01   4.54586668e-02   6.03673392e-02  -8.47156231e-02]
 [ -9.00225072e-03  -5.46549803e-01  -1.00180560e-02   5.88170946e-02]
 [ -4.97376023e-02   6.60204900e-03  -5.27284199e-01   8.56973310e-02]
 [ -1.98265002e-17   2.66522212e-16  -5.84856398e-17  -5.64059330e-01]]
 U2 [[ 0.50742044 -0.24153972  0.05263953  0.23052855]
 [ 0.31846745  0.57503558  0.06103621 -0.45014425]
 [ 0.05160949 -0.55689168  0.05796145 -0.62708037]
 [-0.03250467  0.00612651  0.84164775  0.12187618]]

Isomorphism T from minimal to Hankel-based bil. system[[-1.2817776   0.25765026 -0.02807385 -0.29108406]
 [-0.44383835 -0.49802667 -0.14733038  0.37596052]
 [ 0.01802659  0.35524631 -0.15844454  0.51397192]
 [ 0.18283762 -0.01636501 -0.6031386  -0.04445475]]

Discrete mode: ('q1', 'q1')
 A matrix difference:
 [[  2.22044605e-16   1.80295067e-16  -3.88578059e-16  -3.87999065e-17]
 [ -6.66133815e-16   6.05699846e-17  -1.77809156e-16   6.90609906e-17]
 [ -1.20736754e-15   7.33779885e-17  -3.33066907e-16   3.06531715e-17]
 [  2.22044605e-16   3.12125895e-16   9.43689571e-16   5.43518867e-17]]
 B matrix difference:
 [[ -1.79962911e-09]
 [ -8.97236618e-10]
 [ -2.91056068e-10]
 [ -9.52555090e-10]]

Discrete mode: ('q1', 'q2')
 A matrix difference:
 [[ -4.72224525e-17   0.00000000e+00   1.15730933e-17   1.72196526e-16]
 [ -3.94479820e-18   3.60822483e-16  -6.08514264e-18  -1.20060444e-17]
 [ -2.96790437e-17   5.96744876e-16   1.03694826e-17   2.35555498e-18]
 [  9.05415795e-17   5.55111512e-17   1.61457521e-16   6.77333097e-17]]
 B matrix difference:
 [[  2.38938973e-10]
 [  5.76349423e-11]
 [ -3.23344618e-11]
 [ -1.44837008e-10]]

Discrete mode: ('q2', 'q1')
 A matrix difference:
 [[ -2.22044605e-16  -1.27247411e-17   4.16333634e-17   1.19605359e-17]
 [ -4.44089210e-16  -8.12289863e-17   1.38777878e-17   2.50541982e-17]
 [  8.32667268e-16   3.19343880e-16   5.55111512e-17   1.05236332e-16]
 [ -7.01695646e-16  -2.15609011e-17   3.60822483e-16  -6.28106739e-18]]
 B matrix difference:
 [[ -4.97902108e-10]
 [  1.03626696e-09]
 [ -1.04853892e-09]
 [  5.65195286e-11]]

Discrete mode: ('q2', 'q2')
 A matrix difference:
 [[  1.16973884e-16  -2.77555756e-17  -7.47164827e-17  -7.80820928e-17]
 [  1.59912642e-17   0.00000000e+00  -2.54663321e-17  -1.08325987e-16]
 [ -1.00248779e-16  -5.55111512e-17   6.52714081e-17   3.80862995e-17]
 [ -5.48283413e-18  -1.94289029e-16   6.34092585e-18   3.99478364e-19]]
 B matrix difference:
 [[  7.67550906e-11]
 [ -9.91355587e-11]
 [ -1.35527895e-10]
 [  1.17221053e-11]]

C matrix:
 [[ -6.66133815e-16   6.66133815e-16   1.11022302e-16  -4.44089210e-16]]
t_obs_matrix [[ -4.23064185e-01   5.05776152e-17   5.66583352e-01  -1.87099252e-17]
 [ -6.54234102e-01   2.76992226e-17  -4.88512442e-01   2.45636718e-17]
 [  1.94392549e-18   5.19332841e-16   1.10412197e-16   7.07106781e-01]
 [ -4.63640904e-17  -8.16496581e-01  -6.43846162e-17  -1.63172427e-17]
 [ -6.25525472e-01   2.87660114e-17   1.70162985e-01  -3.98291860e-17]
 [  4.41167443e-17   5.77350269e-01   3.03500503e-17  -1.35254221e-16]
 [ -4.13801771e-02   1.40495025e-16  -6.41391812e-01   1.50803515e-16]
 [ -1.68200404e-17  -6.44829242e-17   6.79229399e-17   7.07106781e-01]]

U1 [[ -4.23064185e-01   5.05776152e-17   5.66583352e-01  -1.87099252e-17]
 [ -6.54234102e-01   2.76992226e-17  -4.88512442e-01   2.45636718e-17]
 [  1.94392549e-18   5.19332841e-16   1.10412197e-16   7.07106781e-01]
 [ -4.63640904e-17  -8.16496581e-01  -6.43846162e-17  -1.63172427e-17]]
 U2 [[ -6.25525472e-01   2.87660114e-17   1.70162985e-01  -3.98291860e-17]
 [  4.41167443e-17   5.77350269e-01   3.03500503e-17  -1.35254221e-16]
 [ -4.13801771e-02   1.40495025e-16  -6.41391812e-01   1.50803515e-16]
 [ -1.68200404e-17  -6.44829242e-17   6.79229399e-17   7.07106781e-01]]

Isomorphism T from simple minimal to computed minimal bil. system[[  7.22097877e-01   9.78340080e-01   9.85262390e-18  -3.50502534e-17]
 [  2.22044605e-16  -2.22044605e-16   9.10782296e-16  -1.41421356e+00]
 [ -6.91790905e-01   1.02120061e+00   1.03867593e-16   1.56992475e-16]
 [  1.61750882e-16  -1.27944581e-16   1.00000000e+00  -2.15127679e-16]]

Discrete mode: ('q1', 'q1')
 A matrix difference:
 [[  7.77156117e-16   0.00000000e+00  -1.00076618e-16  -1.21464710e-16]
 [  1.17864427e-17  -4.66598628e-16  -5.09630221e-32  -1.70329682e-31]
 [  2.22044605e-16  -2.16493490e-15   1.95273885e-17   2.03311407e-16]
 [ -1.83783681e-16  -1.08737573e-15  -9.35555268e-32  -2.40801079e-31]]
 B matrix difference:
 [[  4.63278305e-11]
 [ -5.90470874e-16]
 [ -4.43853843e-11]
 [ -1.23117671e-15]]

Discrete mode: ('q1', 'q2')
 A matrix difference:
 [[  4.06952877e-17  -2.43638789e-17   2.96733013e-16   7.77156117e-16]
 [  3.94741323e-32  -2.36327848e-32   2.89229658e-31  -4.78385070e-16]
 [ -3.89872769e-17   2.33413092e-17  -2.92030323e-16  -1.33226763e-15]
 [  6.00395577e-32  -3.59451080e-32   4.51684206e-31  -9.03592052e-16]]
 B matrix difference:
 [[  3.08842238e-11]
 [ -6.02257317e-16]
 [ -2.95886530e-11]
 [ -1.04739303e-15]]

Discrete mode: ('q2', 'q1')
 A matrix difference:
 [[ -5.98129222e-17   5.62205597e-17   8.14221238e-33   2.53466031e-32]
 [  0.00000000e+00   2.22044605e-15   5.51314083e-17  -6.27825537e-17]
 [  4.22135267e-16   4.08207902e-16   2.32528851e-34  -3.86702083e-32]
 [ -7.93386908e-16  -2.33146835e-15  -8.57739832e-17  -2.28358391e-16]]
 B matrix difference:
 [[  1.59176479e-18]
 [ -2.22044605e-16]
 [  2.88246430e-16]
 [  6.41573927e-11]]

Discrete mode: ('q2', 'q2')
 A matrix difference:
 [[ -5.98403720e-33   3.58258574e-33  -9.90703297e-32   1.16033482e-16]
 [  4.10020256e-32   3.75122441e-32   1.16584571e-17   3.92977878e-16]
 [  6.63857336e-33  -3.97445027e-33   1.28308628e-32  -1.39273657e-17]
 [  5.63570244e-17  -3.37404106e-17   4.18146321e-16  -9.99200722e-16]]
 B matrix difference:
 [[  6.14046870e-17]
 [  3.99292016e-17]
 [ -1.33888837e-16]
 [  4.27698948e-11]]

C matrix:
 [[ -2.22044605e-16  -1.33226763e-15   9.99200722e-16   6.66133815e-16]]
t_obs_matrix [[ -4.51024765e-01   1.62669225e-02  -4.83858127e-01  -1.20098926e-01]
 [ -7.26831011e-01   3.49713569e-02   3.18440817e-01   3.65406794e-03]
 [ -2.90015611e-17   4.26696553e-17   2.21856140e-16  -5.63306930e-01]
 [  9.50734424e-03   6.78076098e-01  -1.59853963e-02  -6.39846837e-02]
 [  4.37193297e-01  -2.05094260e-01   3.71856044e-02   2.25317215e-01]
 [  2.73527684e-01   5.08526287e-01  -7.80587579e-03  -4.34684128e-01]
 [  4.73811026e-02  -4.87909867e-01  -4.35441617e-02  -6.39786319e-01]
 [ -1.61589800e-03   2.55329184e-03  -8.12946143e-01   1.22920655e-01]]

U1 [[ -4.51024765e-01   1.62669225e-02  -4.83858127e-01  -1.20098926e-01]
 [ -7.26831011e-01   3.49713569e-02   3.18440817e-01   3.65406794e-03]
 [ -2.90015611e-17   4.26696553e-17   2.21856140e-16  -5.63306930e-01]
 [  9.50734424e-03   6.78076098e-01  -1.59853963e-02  -6.39846837e-02]]
 U2 [[ 0.4371933  -0.20509426  0.0371856   0.22531721]
 [ 0.27352768  0.50852629 -0.00780588 -0.43468413]
 [ 0.0473811  -0.48790987 -0.04354416 -0.63978632]
 [-0.0016159   0.00255329 -0.81294614  0.12292065]]

Isomorphism T from simple minimal to computed  Hankel bil. system[[-0.90614765 -1.28268344 -0.29108406 -0.3643725 ]
 [-0.21857291 -0.58467872  0.37596052  0.70431607]
 [ 0.12262745 -0.14416752  0.51397192 -0.50239415]
 [ 0.54927245 -0.43704813 -0.04445475  0.02314362]]

Discrete mode: ('q1', 'q1')
 A matrix difference:
 [[ -1.33226763e-15   4.44089210e-16  -4.06688682e-16  -6.77087645e-16]
 [ -3.33066907e-16  -1.11022302e-16  -1.05200221e-16  -1.68899217e-16]
 [ -4.71844785e-16  -1.89778748e-15  -1.82781240e-17  -2.52017713e-17]
 [ -8.32667268e-16   1.98452366e-15  -9.99837691e-17  -1.03569260e-16]]
 B matrix difference:
 [[ -1.85776328e-09]
 [ -9.11258180e-10]
 [ -2.83188750e-10]
 [ -9.17314280e-10]]

Discrete mode: ('q1', 'q2')
 A matrix difference:
 [[ -1.59852481e-16   3.00719143e-16   4.28845317e-16   1.44328993e-15]
 [ -2.70431150e-17   7.07468387e-17   5.09938054e-17  -2.49800181e-16]
 [ -1.26719835e-17  -6.37956629e-17  -3.11197589e-17  -1.49880108e-15]
 [  2.50509994e-17   5.03326035e-17  -8.30333693e-17   8.88178420e-16]]
 B matrix difference:
 [[  2.00183084e-10]
 [  4.82865532e-11]
 [ -2.70903166e-11]
 [ -1.21344095e-10]]

Discrete mode: ('q2', 'q1')
 A matrix difference:
 [[ -9.43689571e-16  -3.33066907e-16  -9.14026901e-17  -1.20821733e-16]
 [  1.77635684e-15   1.11022302e-15   2.31174244e-16   2.78406495e-16]
 [  4.44089210e-16   2.22044605e-16  -6.82098692e-17  -1.29183536e-16]
 [ -1.87350135e-16   1.80411242e-16   2.41086753e-18   3.97417271e-18]]
 B matrix difference:
 [[ -5.16577670e-10]
 [  1.06038867e-09]
 [ -1.01556352e-09]
 [  5.36680630e-11]]

Discrete mode: ('q2', 'q2')
 A matrix difference:
 [[  9.83276079e-17   1.45780723e-16   5.19629567e-18   3.88578059e-16]
 [  7.80278281e-17  -1.49377437e-16  -2.17813371e-16  -1.11022302e-16]
 [ -5.07506143e-17  -2.21488104e-16  -9.95219508e-17  -7.77156117e-16]
 [ -1.41224745e-17   1.75508668e-17   1.24691902e-17   2.22044605e-16]]
 B matrix difference:
 [[  6.43053913e-11]
 [ -8.30557942e-11]
 [ -1.13545334e-10]
 [  9.82087178e-12]]

C matrix:
 [[  9.99200722e-16  -1.33226763e-15  -2.22044605e-16  -1.99840144e-15]]
Discrete mode ('q1', 'q1') self covariance original system [[ 1.04399702]] self covariance minimal system [[ 1.04399702]] self covariance minimal system from Hankel matrix[[ 1.04399702]]

Discrete mode ('q1', 'q2') self covariance original system [[ 2.9388516]] self covariance minimal system [[ 2.9388516]] self covariance minimal system from Hankel matrix[[ 2.9388516]]

Discrete mode ('q2', 'q1') self covariance original system [[ 1.04399702]] self covariance minimal system [[ 1.04399702]] self covariance minimal system from Hankel matrix[[ 1.04399702]]

Discrete mode ('q2', 'q2') self covariance original system [[ 2.9388516]] self covariance minimal system [[ 2.9388516]] self covariance minimal system from Hankel matrix[[ 2.9388516]]

Maximal relative error in the covariances between original and minimized system: 3.58119411344e-10

Maximal relative error in the covariances between original and system from Hankel matrix: 6.09573947162e-10

